Терма/Lab4/NewFile6.csv

X,CH1,CH2,CH3,CH4,Start,Increment,
Sequence,Volt,Volt,Volt,Volt,-1.200000e-01,2.000000e-04
0,1.52e+00,5.12e-01,-1.84e-01,-2.88e+00,
1,1.60e+00,5.12e-01,-2.24e-01,-3.16e+00,
2,1.60e+00,5.12e-01,-1.84e-01,-3.20e+00,
3,1.44e+00,5.12e-01,-2.24e-01,-3.00e+00,
4,1.60e+00,5.12e-01,-2.24e-01,-3.28e+00,
5,1.44e+00,5.12e-01,-1.92e-01,-3.04e+00,
6,1.52e+00,5.12e-01,-1.92e-01,-3.08e+00,
7,1.44e+00,5.12e-01,-2.24e-01,-3.28e+00,
8,1.44e+00,5.12e-01,-1.84e-01,-3.28e+00,
9,1.52e+00,5.12e-01,-2.24e-01,-2.92e+00,
10,1.44e+00,5.12e-01,-2.16e-01,-3.16e+00,
11,1.52e+00,5.12e-01,-1.84e-01,-2.92e+00,
12,1.52e+00,5.12e-01,-2.08e-01,-3.08e+00,
13,1.28e+00,5.12e-01,-1.76e-01,-2.72e+00,
14,1.52e+00,5.12e-01,-2.00e-01,-2.96e+00,
15,1.28e+00,5.12e-01,-1.68e-01,-2.68e+00,
16,1.36e+00,5.12e-01,-1.92e-01,-2.84e+00,
17,1.28e+00,5.12e-01,-1.52e-01,-2.60e+00,
18,1.36e+00,5.12e-01,-1.92e-01,-2.76e+00,
19,1.28e+00,5.12e-01,-8.00e-02,-1.48e+00,
20,1.36e+00,5.12e-01,-1.28e-01,-2.12e+00,
21,1.20e+00,5.12e-01,-1.92e-01,-2.80e+00,
22,1.20e+00,5.12e-01,-1.60e-01,-2.60e+00,
23,1.28e+00,5.12e-01,-2.00e-01,-2.96e+00,
24,1.28e+00,5.12e-01,-1.76e-01,-2.80e+00,
25,1.04e+00,5.12e-01,-2.08e-01,-3.08e+00,
26,1.04e+00,5.12e-01,-1.76e-01,-2.92e+00,
27,1.28e+00,5.12e-01,-2.16e-01,-3.20e+00,
28,1.04e+00,5.12e-01,-2.24e-01,-3.28e+00,
29,1.12e+00,5.12e-01,-1.92e-01,-3.00e+00,
30,1.12e+00,5.12e-01,-1.92e-01,-3.32e+00,
31,8.80e-01,5.12e-01,-2.32e-01,-3.00e+00,
32,9.60e-01,5.12e-01,-1.92e-01,-3.32e+00,
33,8.80e-01,5.12e-01,-2.32e-01,-3.04e+00,
34,9.60e-01,5.12e-01,-2.24e-01,-3.28e+00,
35,8.00e-01,5.12e-01,-1.84e-01,-3.00e+00,
36,8.80e-01,5.12e-01,-2.24e-01,-3.20e+00,
37,7.20e-01,5.12e-01,-1.84e-01,-2.88e+00,
38,6.40e-01,5.12e-01,-2.08e-01,-3.08e+00,
39,8.80e-01,5.12e-01,-1.76e-01,-2.88e+00,
40,7.20e-01,5.12e-01,-2.00e-01,-2.96e+00,
41,5.60e-01,5.12e-01,-1.68e-01,-2.76e+00,
42,7.20e-01,5.12e-01,-2.00e-01,-2.92e+00,
43,5.60e-01,5.12e-01,-8.00e-02,-1.40e+00,
44,6.40e-01,5.12e-01,-1.52e-01,-2.48e+00,
45,4.00e-01,5.12e-01,-2.00e-01,-2.92e+00,
46,4.80e-01,5.12e-01,-1.76e-01,-2.80e+00,
47,4.00e-01,5.12e-01,-2.08e-01,-3.08e+00,
48,4.80e-01,5.12e-01,-1.84e-01,-2.88e+00,
49,3.20e-01,5.12e-01,-2.24e-01,-3.28e+00,
50,4.00e-01,5.12e-01,-1.92e-01,-3.04e+00,
51,1.60e-01,5.12e-01,-2.32e-01,-3.32e+00,
52,3.20e-01,5.12e-01,-1.92e-01,-3.16e+00,
53,1.60e-01,5.12e-01,-2.32e-01,-3.40e+00,
54,2.40e-01,5.12e-01,-2.32e-01,-3.40e+00,
55,8.00e-02,5.12e-01,-1.92e-01,-3.12e+00,
56,8.00e-02,5.12e-01,-2.32e-01,-3.40e+00,
57,1.60e-01,5.12e-01,-1.92e-01,-3.12e+00,
58,8.00e-02,5.12e-01,-2.32e-01,-3.32e+00,
59,1.60e-01,5.12e-01,-1.92e-01,-3.12e+00,
60,8.00e-02,5.12e-01,-2.16e-01,-3.28e+00,
61,1.60e-01,5.12e-01,-1.84e-01,-3.00e+00,
62,8.00e-02,5.12e-01,-2.08e-01,-3.16e+00,
63,1.60e-01,5.12e-01,-1.76e-01,-2.88e+00,
64,8.00e-02,5.12e-01,-2.00e-01,-3.04e+00,
65,1.60e-01,5.12e-01,-1.60e-01,-2.72e+00,
66,8.00e-02,5.12e-01,-2.00e-01,-2.96e+00,
67,1.60e-01,5.12e-01,-8.80e-02,-1.48e+00,
68,8.00e-02,5.12e-01,-1.44e-01,-2.40e+00,
69,1.60e-01,5.12e-01,-2.00e-01,-2.84e+00,
70,8.00e-02,5.12e-01,-1.68e-01,-2.68e+00,
71,1.60e-01,5.12e-01,-2.08e-01,-3.04e+00,
72,8.00e-02,5.12e-01,-1.76e-01,-2.88e+00,
73,1.60e-01,5.12e-01,-2.16e-01,-3.20e+00,
74,8.00e-02,5.12e-01,-1.84e-01,-3.04e+00,
75,1.60e-01,5.12e-01,-2.24e-01,-3.28e+00,
76,8.00e-02,5.12e-01,-1.92e-01,-3.12e+00,
77,1.60e-01,5.12e-01,-2.32e-01,-3.32e+00,
78,8.00e-02,5.12e-01,-2.32e-01,-3.32e+00,
79,1.60e-01,5.12e-01,-1.92e-01,-3.12e+00,
80,8.00e-02,5.12e-01,-1.92e-01,-3.32e+00,
81,1.60e-01,5.12e-01,-2.32e-01,-3.08e+00,
82,8.00e-02,5.12e-01,-1.92e-01,-3.04e+00,
83,1.60e-01,5.12e-01,-2.24e-01,-3.28e+00,
84,8.00e-02,5.12e-01,-2.24e-01,-3.20e+00,
85,1.60e-01,5.12e-01,-1.84e-01,-2.96e+00,
86,8.00e-02,5.12e-01,-2.08e-01,-3.16e+00,
87,1.60e-01,5.12e-01,-1.76e-01,-2.80e+00,
88,8.00e-02,5.12e-01,-2.00e-01,-3.04e+00,
89,1.60e-01,5.12e-01,-1.68e-01,-2.76e+00,
90,8.00e-02,5.12e-01,-2.08e-01,-3.00e+00,
91,1.60e-01,5.12e-01,-8.80e-02,-1.48e+00,
92,8.00e-02,5.12e-01,-1.52e-01,-2.64e+00,
93,1.60e-01,5.12e-01,-2.00e-01,-3.04e+00,
94,8.00e-02,5.12e-01,-1.76e-01,-2.88e+00,
95,1.60e-01,5.12e-01,-2.24e-01,-3.16e+00,
96,8.00e-02,5.12e-01,-1.84e-01,-2.92e+00,
97,1.60e-01,5.12e-01,-2.32e-01,-3.28e+00,
98,8.00e-02,5.12e-01,-1.92e-01,-3.08e+00,
99,1.60e-01,5.12e-01,-2.32e-01,-3.40e+00,
100,1.60e-01,5.12e-01,-2.32e-01,-3.44e+00,
101,8.00e-02,5.12e-01,-2.00e-01,-3.16e+00,
102,1.60e-01,5.12e-01,-2.32e-01,-3.44e+00,
103,8.00e-02,5.12e-01,-1.92e-01,-3.16e+00,
104,8.00e-02,5.12e-01,-2.32e-01,-3.40e+00,
105,1.60e-01,5.12e-01,-1.92e-01,-3.12e+00,
106,8.00e-02,5.12e-01,-2.32e-01,-3.32e+00,
107,1.60e-01,5.12e-01,-1.84e-01,-3.08e+00,
108,8.00e-02,5.12e-01,-2.24e-01,-3.24e+00,
109,1.60e-01,5.12e-01,-1.84e-01,-2.92e+00,
110,1.60e-01,5.12e-01,-2.08e-01,-3.08e+00,
111,8.00e-02,-5.08e-01,-1.76e-01,-2.84e+00,
112,8.00e-02,-5.08e-01,-2.00e-01,-2.96e+00,
113,1.60e-01,5.12e-01,-1.60e-01,-2.68e+00,
114,8.00e-02,5.12e-01,-1.92e-01,-2.96e+00,
115,1.60e-01,5.12e-01,-8.80e-02,-1.48e+00,
116,1.60e-01,5.12e-01,-1.52e-01,-2.56e+00,
117,8.00e-02,5.12e-01,-2.00e-01,-2.92e+00,
118,8.00e-02,5.12e-01,-1.76e-01,-2.76e+00,
119,1.60e-01,5.12e-01,-2.08e-01,-3.08e+00,
120,1.60e-01,5.12e-01,-1.76e-01,-2.92e+00,
121,8.00e-02,5.12e-01,-2.24e-01,-3.20e+00,
122,8.00e-02,5.12e-01,-1.84e-01,-3.00e+00,
123,1.60e-01,5.12e-01,-2.24e-01,-3.28e+00,
124,1.60e-01,5.12e-01,-1.92e-01,-3.00e+00,
125,8.00e-02,5.12e-01,-2.32e-01,-3.32e+00,
126,8.00e-02,5.12e-01,-2.24e-01,-3.32e+00,
127,1.60e-01,5.12e-01,-1.84e-01,-3.00e+00,
128,8.00e-02,5.12e-01,-1.92e-01,-3.28e+00,
129,1.60e-01,5.12e-01,-2.24e-01,-3.04e+00,
130,8.00e-02,5.12e-01,-2.24e-01,-3.20e+00,
131,1.60e-01,5.12e-01,-1.84e-01,-3.00e+00,
132,8.00e-02,5.12e-01,-2.16e-01,-3.16e+00,
133,1.60e-01,5.12e-01,-1.76e-01,-2.84e+00,
134,8.00e-02,5.12e-01,-2.08e-01,-3.04e+00,
135,1.60e-01,5.12e-01,-1.76e-01,-2.72e+00,
136,8.00e-02,5.12e-01,-2.00e-01,-2.92e+00,
137,1.60e-01,5.12e-01,-1.60e-01,-2.68e+00,
138,8.00e-02,5.12e-01,-2.00e-01,-2.92e+00,
139,1.60e-01,5.12e-01,-8.00e-02,-1.36e+00,
140,8.00e-02,5.12e-01,-1.52e-01,-2.56e+00,
141,1.60e-01,5.12e-01,-2.00e-01,-2.92e+00,
142,8.00e-02,5.12e-01,-1.76e-01,-2.76e+00,
143,1.60e-01,5.12e-01,-2.08e-01,-3.08e+00,
144,8.00e-02,5.12e-01,-1.76e-01,-2.80e+00,
145,1.60e-01,5.12e-01,-2.08e-01,-3.16e+00,
146,8.00e-02,5.12e-01,-1.84e-01,-3.00e+00,
147,1.60e-01,5.12e-01,-2.24e-01,-3.24e+00,
148,8.00e-02,5.12e-01,-1.84e-01,-3.04e+00,
149,1.60e-01,5.12e-01,-2.24e-01,-3.28e+00,
150,8.00e-02,5.12e-01,-1.92e-01,-3.28e+00,
151,1.60e-01,5.12e-01,-2.32e-01,-3.12e+00,
152,8.00e-02,5.12e-01,-2.24e-01,-3.28e+00,
153,1.60e-01,5.12e-01,-1.84e-01,-3.00e+00,
154,8.00e-02,5.12e-01,-2.16e-01,-3.20e+00,
155,1.60e-01,5.12e-01,-1.84e-01,-2.96e+00,
156,1.60e-01,5.12e-01,-2.16e-01,-3.16e+00,
157,8.00e-02,5.12e-01,-1.76e-01,-2.88e+00,
158,8.00e-02,5.12e-01,-2.08e-01,-3.08e+00,
159,1.60e-01,5.12e-01,-1.68e-01,-2.76e+00,
160,8.00e-02,5.12e-01,-2.00e-01,-2.92e+00,
161,1.60e-01,5.12e-01,-1.60e-01,-2.64e+00,
162,1.60e-01,5.12e-01,-1.92e-01,-2.80e+00,
163,8.00e-02,5.12e-01,-8.80e-02,-1.48e+00,
164,8.00e-02,5.12e-01,-8.80e-02,-1.56e+00,
165,1.60e-01,5.12e-01,-1.92e-01,-2.76e+00,
166,8.00e-02,5.12e-01,-1.68e-01,-2.64e+00,
167,1.60e-01,5.12e-01,-2.00e-01,-2.96e+00,
168,8.00e-02,5.12e-01,-1.68e-01,-2.76e+00,
169,1.60e-01,5.12e-01,-2.08e-01,-3.12e+00,
170,8.00e-02,5.12e-01,-1.84e-01,-2.96e+00,
171,2.40e-01,5.12e-01,-2.24e-01,-3.20e+00,
172,1.60e-01,5.12e-01,-1.92e-01,-3.28e+00,
173,2.40e-01,5.12e-01,-2.24e-01,-3.00e+00,
174,1.60e-01,5.12e-01,-1.84e-01,-3.32e+00,
175,4.00e-01,5.12e-01,-2.32e-01,-3.00e+00,
176,3.20e-01,5.12e-01,-2.32e-01,-3.32e+00,
177,4.80e-01,5.12e-01,-1.84e-01,-3.04e+00,
178,4.00e-01,5.12e-01,-1.92e-01,-3.28e+00,
179,4.80e-01,5.12e-01,-2.24e-01,-3.00e+00,
180,4.00e-01,5.12e-01,-1.84e-01,-3.20e+00,
181,6.40e-01,5.12e-01,-2.24e-01,-2.92e+00,
182,5.60e-01,5.12e-01,-2.08e-01,-3.16e+00,
183,7.20e-01,5.12e-01,-1.76e-01,-2.88e+00,
184,7.20e-01,5.12e-01,-2.00e-01,-3.04e+00,
185,5.60e-01,5.12e-01,-1.68e-01,-2.76e+00,
186,6.40e-01,5.12e-01,-1.92e-01,-2.88e+00,
187,8.80e-01,5.12e-01,-8.00e-02,-1.40e+00,
188,8.80e-01,5.12e-01,-1.36e-01,-2.32e+00,
189,6.40e-01,5.12e-01,-2.00e-01,-2.92e+00,
190,8.00e-01,5.12e-01,-1.60e-01,-2.72e+00,
191,9.60e-01,5.12e-01,-2.08e-01,-3.12e+00,
192,9.60e-01,5.12e-01,-1.84e-01,-2.88e+00,
193,8.00e-01,5.12e-01,-2.16e-01,-3.20e+00,
194,9.60e-01,5.12e-01,-1.84e-01,-3.12e+00,
195,8.80e-01,5.12e-01,-2.32e-01,-3.28e+00,
196,8.80e-01,5.12e-01,-1.92e-01,-3.32e+00,
197,1.12e+00,5.12e-01,-2.32e-01,-3.20e+00,
198,1.12e+00,5.12e-01,-2.32e-01,-3.16e+00,
199,1.04e+00,5.12e-01,-1.92e-01,-3.36e+00,
200,1.04e+00,5.12e-01,-1.92e-01,-3.40e+00,
201,1.28e+00,5.12e-01,-2.32e-01,-3.04e+00,
202,1.28e+00,5.12e-01,-2.32e-01,-3.32e+00,
203,1.04e+00,5.12e-01,-1.92e-01,-3.04e+00,
204,1.20e+00,5.12e-01,-1.84e-01,-3.20e+00,
205,1.28e+00,5.12e-01,-2.24e-01,-3.00e+00,
206,1.20e+00,5.12e-01,-2.24e-01,-3.16e+00,
207,1.36e+00,5.12e-01,-1.76e-01,-2.88e+00,
208,1.20e+00,5.12e-01,-2.00e-01,-3.04e+00,
209,1.36e+00,5.12e-01,-1.60e-01,-2.64e+00,
210,1.36e+00,5.12e-01,-2.00e-01,-2.88e+00,
211,1.28e+00,5.12e-01,-8.00e-02,-1.40e+00,
212,1.28e+00,5.12e-01,-8.80e-02,-1.48e+00,
213,1.36e+00,5.12e-01,-1.92e-01,-2.76e+00,
214,1.28e+00,5.12e-01,-1.68e-01,-2.68e+00,
215,1.44e+00,5.12e-01,-2.00e-01,-2.96e+00,
216,1.28e+00,5.12e-01,-2.08e-01,-2.80e+00,
217,1.52e+00,5.12e-01,-1.76e-01,-3.08e+00,
218,1.44e+00,5.12e-01,-1.76e-01,-2.88e+00,
219,1.52e+00,5.12e-01,-2.24e-01,-3.20e+00,
220,1.44e+00,5.12e-01,-2.24e-01,-3.04e+00,
221,1.52e+00,5.12e-01,-1.84e-01,-3.28e+00,
222,1.52e+00,5.12e-01,-1.92e-01,-3.16e+00,
223,1.44e+00,5.12e-01,-2.24e-01,-3.28e+00,
224,1.44e+00,5.12e-01,-2.32e-01,-3.28e+00,
225,1.60e+00,5.12e-01,-1.84e-01,-3.04e+00,
226,1.60e+00,5.12e-01,-2.24e-01,-3.28e+00,
227,1.44e+00,5.12e-01,-1.84e-01,-2.96e+00,
228,1.60e+00,5.12e-01,-2.24e-01,-3.20e+00,
229,1.52e+00,5.12e-01,-1.84e-01,-2.88e+00,
230,1.60e+00,5.12e-01,-2.08e-01,-3.12e+00,
231,1.52e+00,5.12e-01,-1.76e-01,-2.92e+00,
232,1.60e+00,5.12e-01,-2.00e-01,-3.04e+00,
233,1.52e+00,5.12e-01,-1.68e-01,-2.76e+00,
234,1.52e+00,5.12e-01,-2.00e-01,-2.96e+00,
235,1.60e+00,5.12e-01,-8.80e-02,-1.48e+00,
236,1.52e+00,5.12e-01,-9.60e-02,-1.64e+00,
237,1.76e+00,5.12e-01,-1.92e-01,-2.84e+00,
238,1.76e+00,5.12e-01,-1.60e-01,-2.76e+00,
239,1.52e+00,5.12e-01,-2.08e-01,-3.08e+00,
240,1.76e+00,5.12e-01,-1.76e-01,-2.80e+00,
241,1.52e+00,5.12e-01,-2.16e-01,-3.20e+00,
242,1.76e+00,5.12e-01,-1.84e-01,-3.28e+00,
243,1.52e+00,5.12e-01,-2.24e-01,-3.00e+00,
244,1.52e+00,5.12e-01,-1.92e-01,-3.04e+00,
245,1.76e+00,5.12e-01,-2.32e-01,-3.32e+00,
246,1.52e+00,5.12e-01,-1.92e-01,-3.20e+00,
247,1.76e+00,5.12e-01,-2.32e-01,-3.40e+00,
248,1.76e+00,5.12e-01,-2.32e-01,-3.40e+00,
249,1.52e+00,5.12e-01,-1.92e-01,-3.12e+00,
250,1.52e+00,5.12e-01,-2.32e-01,-3.32e+00,
251,1.76e+00,5.12e-01,-1.84e-01,-3.00e+00,
252,1.52e+00,5.12e-01,-1.84e-01,-3.20e+00,
253,1.76e+00,5.12e-01,-2.24e-01,-2.92e+00,
254,1.52e+00,5.12e-01,-2.08e-01,-3.16e+00,
255,1.76e+00,5.12e-01,-1.76e-01,-2.84e+00,
256,1.76e+00,5.12e-01,-2.00e-01,-2.96e+00,
257,1.52e+00,5.12e-01,-1.68e-01,-2.60e+00,
258,1.76e+00,5.12e-01,-1.92e-01,-2.88e+00,
259,1.52e+00,5.12e-01,-1.52e-01,-2.56e+00,
260,1.76e+00,5.12e-01,-1.92e-01,-2.76e+00,
261,1.52e+00,5.12e-01,-8.00e-02,-1.48e+00,
262,1.52e+00,5.12e-01,-1.52e-01,-2.52e+00,
263,1.60e+00,5.12e-01,-2.00e-01,-2.92e+00,
264,1.52e+00,5.12e-01,-1.60e-01,-2.72e+00,
265,1.60e+00,5.12e-01,-2.08e-01,-3.04e+00,
266,1.60e+00,5.12e-01,-2.08e-01,-3.16e+00,
267,1.52e+00,5.12e-01,-1.76e-01,-2.88e+00,
268,1.60e+00,5.12e-01,-1.84e-01,-3.00e+00,
269,1.52e+00,5.12e-01,-2.16e-01,-3.20e+00,
270,1.60e+00,5.12e-01,-2.24e-01,-3.00e+00,
271,1.44e+00,5.12e-01,-1.84e-01,-3.24e+00,
272,1.44e+00,5.12e-01,-1.84e-01,-2.96e+00,
273,1.60e+00,5.12e-01,-2.24e-01,-3.24e+00,
274,1.44e+00,5.12e-01,-2.16e-01,-3.20e+00,
275,1.60e+00,5.12e-01,-1.84e-01,-2.92e+00,
276,1.44e+00,5.12e-01,-2.08e-01,-3.16e+00,
277,1.52e+00,5.12e-01,-1.76e-01,-2.88e+00,
278,1.44e+00,5.12e-01,-2.08e-01,-3.08e+00,
279,1.52e+00,5.12e-01,-1.76e-01,-2.80e+00,
280,1.52e+00,5.12e-01,-2.00e-01,-2.96e+00,
281,1.28e+00,5.12e-01,-1.60e-01,-2.64e+00,
282,1.52e+00,5.12e-01,-1.92e-01,-2.84e+00,
283,1.28e+00,5.12e-01,-1.52e-01,-2.56e+00,
284,1.28e+00,5.12e-01,-1.92e-01,-2.80e+00,
285,1.36e+00,5.12e-01,-8.00e-02,-1.36e+00,
286,1.36e+00,5.12e-01,-1.52e-01,-2.56e+00,
287,1.28e+00,5.12e-01,-1.92e-01,-2.84e+00,
288,1.36e+00,5.12e-01,-1.60e-01,-2.68e+00,
289,1.20e+00,5.12e-01,-2.00e-01,-3.04e+00,
290,1.20e+00,5.12e-01,-1.76e-01,-2.80e+00,
291,1.36e+00,5.12e-01,-2.08e-01,-3.08e+00,
292,1.20e+00,5.12e-01,-1.84e-01,-2.88e+00,
293,1.28e+00,5.12e-01,-2.16e-01,-3.20e+00,
294,1.04e+00,5.12e-01,-1.84e-01,-3.04e+00,
295,1.28e+00,5.12e-01,-2.24e-01,-3.20e+00,
296,1.04e+00,5.12e-01,-1.84e-01,-3.20e+00,
297,1.20e+00,5.12e-01,-2.24e-01,-3.04e+00,
298,1.12e+00,5.12e-01,-2.24e-01,-3.20e+00,
299,8.80e-01,5.12e-01,-1.84e-01,-2.96e+00,
300,1.12e+00,5.12e-01,-2.16e-01,-3.20e+00,
301,8.80e-01,5.12e-01,-1.76e-01,-2.92e+00,
302,9.60e-01,5.12e-01,-2.08e-01,-3.12e+00,
303,8.80e-01,5.12e-01,-1.76e-01,-2.80e+00,
304,9.60e-01,5.12e-01,-2.08e-01,-3.04e+00,
305,8.00e-01,5.12e-01,-1.76e-01,-2.84e+00,
306,8.80e-01,5.12e-01,-2.00e-01,-2.92e+00,
307,7.20e-01,5.12e-01,-1.60e-01,-2.56e+00,
308,6.40e-01,5.12e-01,-1.92e-01,-2.36e+00,
309,8.80e-01,5.12e-01,-1.52e-01,-2.84e+00,
310,7.20e-01,5.12e-01,-8.00e-02,-2.72e+00,
311,5.60e-01,5.12e-01,-1.84e-01,-1.48e+00,
312,7.20e-01,5.12e-01,-1.52e-01,-2.60e+00,
313,5.60e-01,5.12e-01,-2.00e-01,-2.92e+00,
314,6.40e-01,5.12e-01,-1.68e-01,-2.76e+00,
315,4.00e-01,5.12e-01,-2.08e-01,-3.08e+00,
316,4.80e-01,5.12e-01,-1.76e-01,-2.80e+00,
317,4.00e-01,5.12e-01,-2.16e-01,-3.20e+00,
318,4.80e-01,5.12e-01,-1.84e-01,-3.04e+00,
319,3.20e-01,5.12e-01,-2.24e-01,-3.28e+00,
320,4.00e-01,5.12e-01,-2.32e-01,-3.00e+00,
321,1.60e-01,5.12e-01,-1.84e-01,-3.32e+00,
322,2.40e-01,5.12e-01,-2.24e-01,-3.28e+00,
323,8.00e-02,5.12e-01,-1.92e-01,-3.04e+00,
324,8.00e-02,5.12e-01,-1.84e-01,-3.28e+00,
325,2.40e-01,5.12e-01,-2.24e-01,-3.00e+00,
326,8.00e-02,5.12e-01,-1.84e-01,-3.20e+00,
327,1.60e-01,5.12e-01,-2.24e-01,-2.92e+00,
328,1.60e-01,5.12e-01,-2.24e-01,-3.12e+00,
329,8.00e-02,5.12e-01,-1.84e-01,-2.88e+00,
330,8.00e-02,5.12e-01,-2.08e-01,-3.04e+00,
331,1.60e-01,5.12e-01,-1.68e-01,-2.76e+00,
332,8.00e-02,5.12e-01,-2.00e-01,-2.92e+00,
333,1.60e-01,5.12e-01,-8.00e-02,-1.36e+00,
334,8.00e-02,5.12e-01,-1.12e-01,-1.76e+00,
335,1.60e-01,5.12e-01,-1.92e-01,-2.80e+00,
336,8.00e-02,5.12e-01,-1.60e-01,-2.72e+00,
337,1.60e-01,5.12e-01,-2.08e-01,-3.04e+00,
338,1.60e-01,5.12e-01,-1.76e-01,-2.88e+00,
339,8.00e-02,5.12e-01,-2.16e-01,-3.16e+00,
340,8.00e-02,5.12e-01,-2.24e-01,-2.96e+00,
341,1.60e-01,5.12e-01,-1.84e-01,-3.28e+00,
342,8.00e-02,5.12e-01,-1.92e-01,-3.16e+00,
343,1.60e-01,5.12e-01,-2.32e-01,-3.32e+00,
344,8.00e-02,5.12e-01,-2.32e-01,-3.40e+00,
345,1.60e-01,5.12e-01,-1.92e-01,-3.12e+00,
346,8.00e-02,5.12e-01,-1.92e-01,-3.36e+00,
347,1.60e-01,5.12e-01,-2.32e-01,-3.12e+00,
348,1.60e-01,5.12e-01,-1.92e-01,-3.32e+00,
349,8.00e-02,5.12e-01,-2.32e-01,-3.04e+00,
350,8.00e-02,5.12e-01,-2.24e-01,-3.24e+00,
351,1.60e-01,5.12e-01,-1.84e-01,-3.00e+00,
352,8.00e-02,5.12e-01,-1.84e-01,-3.16e+00,
353,1.60e-01,5.12e-01,-2.16e-01,-2.96e+00,
354,8.00e-02,5.12e-01,-2.08e-01,-3.04e+00,
355,1.60e-01,5.12e-01,-1.68e-01,-2.64e+00,
356,8.00e-02,5.12e-01,-1.92e-01,-2.92e+00,
357,1.60e-01,5.12e-01,-1.52e-01,-2.64e+00,
358,8.00e-02,5.12e-01,-1.92e-01,-2.88e+00,
359,1.60e-01,5.12e-01,-8.00e-02,-1.44e+00,
360,8.00e-02,5.12e-01,-1.52e-01,-2.52e+00,
361,1.60e-01,5.12e-01,-2.00e-01,-2.92e+00,
362,8.00e-02,5.12e-01,-1.76e-01,-2.84e+00,
363,1.60e-01,5.12e-01,-2.08e-01,-3.08e+00,
364,1.60e-01,5.12e-01,-1.76e-01,-2.92e+00,
365,8.00e-02,5.12e-01,-2.16e-01,-3.20e+00,
366,1.60e-01,5.12e-01,-1.84e-01,-3.04e+00,
367,8.00e-02,5.12e-01,-2.24e-01,-3.28e+00,
368,1.60e-01,5.12e-01,-1.92e-01,-3.28e+00,
369,8.00e-02,5.12e-01,-2.24e-01,-3.12e+00,
370,8.00e-02,5.12e-01,-2.24e-01,-3.28e+00,
371,1.60e-01,5.12e-01,-1.84e-01,-3.00e+00,
372,8.00e-02,5.12e-01,-1.84e-01,-3.28e+00,
373,1.60e-01,5.12e-01,-2.24e-01,-2.92e+00,
374,8.00e-02,5.12e-01,-2.24e-01,-3.20e+00,
375,1.60e-01,5.12e-01,-1.84e-01,-2.88e+00,
376,8.00e-02,5.12e-01,-2.08e-01,-3.08e+00,
377,1.60e-01,5.12e-01,-1.76e-01,-2.92e+00,
378,8.00e-02,5.12e-01,-2.08e-01,-3.04e+00,
379,1.60e-01,5.12e-01,-1.68e-01,-2.72e+00,
380,1.60e-01,5.12e-01,-2.00e-01,-2.88e+00,
381,8.00e-02,-5.08e-01,-1.52e-01,-2.56e+00,
382,8.00e-02,-3.88e-01,-1.92e-01,-2.96e+00,
383,1.60e-01,5.12e-01,-8.00e-02,-1.44e+00,
384,8.00e-02,5.12e-01,-1.52e-01,-2.64e+00,
385,1.60e-01,5.12e-01,-2.00e-01,-2.96e+00,
386,8.00e-02,5.12e-01,-1.76e-01,-2.84e+00,
387,1.60e-01,5.12e-01,-2.08e-01,-3.16e+00,
388,8.00e-02,5.12e-01,-1.84e-01,-2.96e+00,
389,1.60e-01,5.12e-01,-2.24e-01,-3.28e+00,
390,8.00e-02,5.12e-01,-1.84e-01,-3.28e+00,
391,1.60e-01,5.12e-01,-2.24e-01,-3.00e+00,
392,8.00e-02,5.12e-01,-1.92e-01,-3.32e+00,
393,1.60e-01,5.12e-01,-2.32e-01,-3.12e+00,
394,8.00e-02,5.12e-01,-2.32e-01,-3.32e+00,
395,1.60e-01,5.12e-01,-1.92e-01,-3.04e+00,
396,8.00e-02,5.12e-01,-2.32e-01,-3.32e+00,
397,1.60e-01,5.12e-01,-1.84e-01,-3.04e+00,
398,1.60e-01,5.12e-01,-1.84e-01,-3.20e+00,
399,8.00e-02,5.12e-01,-2.24e-01,-2.92e+00,
400,8.00e-02,5.12e-01,-2.08e-01,-3.16e+00,
401,1.60e-01,5.12e-01,-1.76e-01,-2.80e+00,
402,8.00e-02,5.12e-01,-2.08e-01,-3.04e+00,
403,1.60e-01,5.12e-01,-1.60e-01,-2.76e+00,
404,8.00e-02,5.12e-01,-1.92e-01,-2.92e+00,
405,1.60e-01,5.12e-01,-1.52e-01,-2.48e+00,
406,8.00e-02,5.12e-01,-1.92e-01,-2.88e+00,
407,1.60e-01,5.12e-01,-8.80e-02,-1.48e+00,
408,8.00e-02,5.12e-01,-1.44e-01,-2.40e+00,
409,1.60e-01,5.12e-01,-1.92e-01,-2.84e+00,
410,8.00e-02,5.12e-01,-1.60e-01,-2.72e+00,
411,1.60e-01,5.12e-01,-2.08e-01,-3.00e+00,
412,8.00e-02,5.12e-01,-1.76e-01,-2.76e+00,
413,1.60e-01,5.12e-01,-2.08e-01,-3.16e+00,
414,8.00e-02,5.12e-01,-1.84e-01,-3.00e+00,
415,1.60e-01,5.12e-01,-2.24e-01,-3.24e+00,
416,8.00e-02,5.12e-01,-2.24e-01,-3.28e+00,
417,1.60e-01,5.12e-01,-1.92e-01,-3.04e+00,
418,8.00e-02,5.12e-01,-1.92e-01,-3.04e+00,
419,1.60e-01,5.12e-01,-2.32e-01,-3.32e+00,
420,8.00e-02,5.12e-01,-2.32e-01,-3.28e+00,
421,1.60e-01,5.12e-01,-1.84e-01,-2.92e+00,
422,1.60e-01,5.12e-01,-2.24e-01,-3.20e+00,
423,8.00e-02,5.12e-01,-1.84e-01,-2.96e+00,
424,8.00e-02,5.12e-01,-1.84e-01,-3.16e+00,
425,1.60e-01,5.12e-01,-2.16e-01,-2.88e+00,
426,8.00e-02,5.12e-01,-2.08e-01,-3.08e+00,
427,1.60e-01,5.12e-01,-1.76e-01,-2.76e+00,
428,8.00e-02,5.12e-01,-2.00e-01,-2.96e+00,
429,1.60e-01,5.12e-01,-1.68e-01,-2.68e+00,
430,8.00e-02,5.12e-01,-2.00e-01,-2.96e+00,
431,1.60e-01,5.12e-01,-8.00e-02,-1.36e+00,
432,8.00e-02,5.12e-01,-1.52e-01,-2.56e+00,
433,1.60e-01,5.12e-01,-2.00e-01,-2.92e+00,
434,8.00e-02,5.12e-01,-1.76e-01,-2.76e+00,
435,1.60e-01,5.12e-01,-2.08e-01,-3.08e+00,
436,8.00e-02,5.12e-01,-1.76e-01,-2.88e+00,
437,1.60e-01,5.12e-01,-2.08e-01,-3.20e+00,
438,8.00e-02,5.12e-01,-2.24e-01,-3.04e+00,
439,1.60e-01,5.12e-01,-1.84e-01,-3.28e+00,
440,8.00e-02,5.12e-01,-1.92e-01,-3.12e+00,
441,2.40e-01,5.12e-01,-2.32e-01,-3.32e+00,
442,1.60e-01,5.12e-01,-1.92e-01,-3.16e+00,
443,3.20e-01,5.12e-01,-2.32e-01,-3.32e+00,
444,1.60e-01,5.12e-01,-2.24e-01,-3.28e+00,
445,4.00e-01,5.12e-01,-1.84e-01,-3.04e+00,
446,3.20e-01,5.12e-01,-2.24e-01,-3.24e+00,
447,4.80e-01,5.12e-01,-1.84e-01,-3.00e+00,
448,4.00e-01,5.12e-01,-2.16e-01,-3.20e+00,
449,4.80e-01,5.12e-01,-1.84e-01,-2.88e+00,
450,4.00e-01,5.12e-01,-2.08e-01,-3.08e+00,
451,6.40e-01,5.12e-01,-1.76e-01,-2.68e+00,
452,5.60e-01,5.12e-01,-2.00e-01,-2.96e+00,
453,7.20e-01,5.12e-01,-1.60e-01,-2.64e+00,
454,7.20e-01,5.12e-01,-2.00e-01,-2.88e+00,
455,5.60e-01,5.12e-01,-8.80e-02,-1.48e+00,
456,6.40e-01,5.12e-01,-1.12e-01,-1.72e+00,
457,8.80e-01,5.12e-01,-1.92e-01,-2.76e+00,
458,6.40e-01,5.12e-01,-1.68e-01,-2.68e+00,
459,8.80e-01,5.12e-01,-2.00e-01,-3.04e+00,
460,8.00e-01,5.12e-01,-1.76e-01,-2.88e+00,
461,9.60e-01,5.12e-01,-2.08e-01,-3.16e+00,
462,9.60e-01,5.12e-01,-1.84e-01,-3.00e+00,
463,8.00e-01,5.12e-01,-2.24e-01,-3.28e+00,
464,8.80e-01,5.12e-01,-1.84e-01,-3.04e+00,
